<?xml version="1.0" encoding="UTF-8"?>
<svg width="20px" height="20px" viewBox="0 0 20 20" version="1.1" xmlns="http://www.w3.org/2000/svg" xmlns:xlink="http://www.w3.org/1999/xlink">
    <!-- Generator: Sketch 60 (88103) - https://sketch.com -->
    <title>3. Icons/1.1 Action/ic_thumb_up Copy</title>
    <desc>Created with Sketch.</desc>
    <g id="Display" stroke="none" stroke-width="1" fill="none" fill-rule="evenodd">
        <g id="Profile" transform="translate(-738.000000, -1277.000000)">
            <g id="Group-5" transform="translate(374.000000, 473.000000)">
                <g id="Group-7-Copy" transform="translate(0.000000, 150.000000)">
                    <g id="Comment-Copy-4">
                        <g id="Group-2" transform="translate(359.000000, 649.000000)">
                            <g id="3.-Icons/1.1-Action/chat">
                                <g id="chat-icon" transform="translate(3.000000, 3.000000)">
                                    <rect id="Rectangle" fill="#000000" fill-rule="nonzero" opacity="0" x="0" y="0" width="24" height="24"></rect>
                                    <path d="M11.9835938,2.30146903 C6.57421875,2.325 2.25,6.7125 2.30390625,12.121875 C2.3203125,13.696875 2.709375,15.1851562 3.3890625,16.4953125 L2.54296875,20.98125 C2.48671875,21.2742187 2.74453125,21.5320312 3.03984375,21.4757812 L7.50234375,20.6320312 C8.85,21.3421875 10.3851563,21.7453125 12.0140625,21.7476715 C17.3835938,21.7570312 21.7265625,17.4421875 21.7500935,12.0703125 C21.7734375,6.665625 17.3882813,2.278125 11.9835938,2.30146903 Z M12.9579545,14.25 L8.5875,14.25 C7.99090909,14.25 7.5,13.9148437 7.5,13.5023437 C7.5,13.0921875 7.9875,12.7546875 8.5875,12.7546875 L12.9579545,12.7546875 C13.5579545,12.7546875 14.0454545,13.0921875 14.0454545,13.5023437 C14.0454545,13.9125 13.5579545,14.25 12.9579545,14.25 Z M16.5023437,10.5046875 C16.5023437,10.9171875 16.1648437,11.2546875 15.7523437,11.2546875 L8.25234375,11.2546875 C7.83984375,11.2546875 7.50234375,10.9171875 7.50234375,10.5046875 C7.50234375,10.0921875 7.83984375,9.7546875 8.25234375,9.7546875 L15.7546875,9.7546875 C16.1648437,9.7546875 16.5023437,10.0921875 16.5023437,10.5046875 Z" id="Shape" fill="#808080"></path>
                                </g>
                            </g>
                        </g>
                    </g>
                </g>
            </g>
        </g>
    </g>
</svg>